UPDATE==============================

$flight = App\Flight::find(1);
$flight->name = 'New Flight Name';
$flight->save();


App\Flight::where('active', 1)->where('destination', 'San Diego') ->update(['delayed' => 1]);









INSERT==============================

$flight = new Flight;
$flight->name = $request->name;
$flight->save();












SEARCH========================
where(function($q) use ($request) {
                                $q->where( DB::raw("CONCAT(title,' ',description)"),'like', '%'.$request->search_text.'%')->get();
                            })